


          SolidWorks Corporation - STEP Processor Error Log
          ______________________________________________________

                       STEP Post Processor
                       ___________________


STEP File Name: C:\SynologyDrive\000.Machine Design\076.KIMS_GIS_Spacer_Printer\Misumi\3d_AC-50F\AC-300FP.stp


곡면들이 솔리드 바디로 작업되었습니다.
STEP-in 완성.곡면들이 솔리드 바디로 작업되었습니다.
STEP-in 완성.곡면들이 솔리드 바디로 작업되었습니다.
STEP-in 완성.곡면들이 솔리드 바디로 작업되었습니다.
STEP-in 완성.곡면들이 솔리드 바디로 작업되었습니다.
STEP-in 완성.
Error: 잘라내기한 곡면들로부터 솔리드를 생성할 수 없습니다.
STEP-in 완성되지 않았음.
